%YAML 1.1
%TAG !u! tag:unity3d.com,2011:
--- !u!78 &1
TagManager:
  serializedVersion: 2
  tags:
  - PlayerBullet
  - TriggerDimension
  - Interactable
  - Active
  - Inactive
  - PromptCanvas
  - DamageTrigger
  - Bullet
  - MasterPlayer
  - CameraSwitcher
  - Confiner
  - IgnoreBullet
  - Enemy
  - DimentionOBJChanger
  layers:
  - Default
  - TransparentFX
  - Ignore Raycast
  - Player
  - Water
  - UI
  - PlayerBullet
  - Grass
  - Ground
  - Particles
  - 
  - 
  - 
  - 
  - 
  - 
  - 
  - 
  - 
  - 
  - 
  - 
  - 
  - 
  - 
  - 
  - 
  - 
  - 
  - 
  - 
  - 
  m_SortingLayers:
  - name: Default
    uniqueID: 0
    locked: 0
  - name: UI
    uniqueID: 1896610181
    locked: 0
